{"book":"lulu","data":[{"hadith_id":"lulu:1","bab":{"th":"บทว่าด้วยการตักเตือนจากการโกหกต่อท่านรอซูลุลลอฮ์ ﷺ","ar":"باب فِي التَّحْذِيرِ مِنَ الْكَذِبِ عَلَى رَسُولِ اللَّهِ ﷺ ","en":"Warning about lying against the Messenger of Allah ﷺ"},"book_author":{"ar":"محمد فؤاد عبد الباقي"},"book_name":{"th":"อัล-ลุ'ลุ' วัล-มัรญาน","ar":"اللؤلؤ والمرجان","en":"Al-Lu'lu' wal-Marjan"},"chain":{"th":"อะลี บิน อัลญะอ์ด > ชุอ์บะฮ์ > มันศูร > ริบอี บิน ฮิรอช > อะลี","ar":"حَدَّثَنَا عَلِيُّ بْنُ الْجَعْدِ قَالَ؛ أَخْبَرَنَا شُعْبَةُ قَالَ؛ أَخْبَرَنِي مَنْصُورٌ قَالَ؛ سَمِعْتُ رِبْعِيَّ بْنَ حِرَاشٍ يَقُولُ؛ سَمِعْتُ عَلِيًّا يَقُولُ"},"content":{"th":"ท่านนบี ﷺ กล่าวว่า: 'พวกเจ้าอย่าโกหกโดยอ้างถึงฉัน เพราะผู้ใดที่โกหกโดยอ้างถึงฉัน ก็ให้เขาเข้าไฟนรก'","ar":"قَالَ النَّبِيُّ ﷺ: «لاَ تَكْذِبُوا عَلَىَّ، فَإِنَّهُ مَنْ كَذَبَ عَلَىَّ فَلْيَلِجِ النَّارَ۔»","en":"The Prophet ﷺ said, \"Do not tell a lie against me for whoever tells a lie against me (intentionally) then he will surely enter the Hell-fire.\""},"footnote":{"th":null,"ar":"null"},"grade":{"th":null,"ar":"متفق عليه","en":"Agreed Upon"},"grade_grades":null,"grader":{"shortName":{"ar":"اللؤلؤ والمرجان","en":"Luʿluʿ wa-al-Marjān"},"fullName":{"ar":"محمد فؤاد بن عبد الباقي بن صالح بن محمد","en":"M Fuʿād b. ʿAbdulbāqī b. Ṣāliḥ b. Muḥammad"}},"hadith_book":"lulu","hadith_no":1,"kitab":{"id":0,"th":"บทนำ","ar":"المقدمة","en":"Introduction"},"status":"translated","title":{"th":null,"ar":"null"},"last_updated":"2026-01-26T02:31:48.879Z"},{"hadith_id":"lulu:2","bab":{"th":"บทว่าด้วยการตักเตือนจากการโกหกต่อท่านรอซูลุลลอฮ์ ﷺ","ar":"باب فِي التَّحْذِيرِ مِنَ الْكَذِبِ عَلَى رَسُولِ اللَّهِ ﷺ ","en":"Warning about lying against the Messenger of Allah ﷺ"},"book_author":{"ar":"محمد فؤاد عبد الباقي"},"book_name":{"th":"อัล-ลุ'ลุ' วัล-มัรญาน","ar":"اللؤلؤ والمرجان","en":"Al-Lu'lu' wal-Marjan"},"chain":{"th":"อบู มะอ์มัร > อับดุลวาริส > อับดุลอะซีซ > อนัส","ar":"حَدَّثَنَا أَبُو مَعْمَرٍ قَالَ؛ حَدَّثَنَا عَبْدُ الْوَارِثِ؛ عَنْ عَبْدِ الْعَزِيزِ؛ قَالَ أَنَسٌ"},"content":{"th":"แท้จริง สิ่งที่ขัดขวางฉันไม่ให้เล่าหะดีษแก่พวกท่านมากนักนั้น ก็เพราะท่านนบี ﷺ กล่าวว่า 'ผู้ใดจงใจกล่าวเท็จต่อฉัน (โดยอ้างหะดีษ) ก็ให้เขาจัดเตรียมที่นั่งของเขาในไฟนรก'","ar":"إِنَّهُ لَيَمْنَعُنِي أَنْ أُحَدِّثَكُمْ حَدِيثًا كَثِيرًا أَنَّ النَّبِيَّ ﷺ قَالَ: «مَنْ تَعَمَّدَ عَلَىَّ كَذِبًا فَلْيَتَبَوَّأْ مَقْعَدَهُ مِنَ النَّارِ۔»","en":"The fact which stops me from narrating a great number of Hadiths to you is that the Prophet ﷺ said: \"Whoever tells a lie against me intentionally, then (surely) let him occupy his seat in Hellfire.\""},"footnote":{"th":null,"ar":"null"},"grade":{"th":null,"ar":"متفق عليه","en":"Agreed Upon"},"grade_grades":null,"grader":{"shortName":{"ar":"اللؤلؤ والمرجان","en":"Luʿluʿ wa-al-Marjān"},"fullName":{"ar":"محمد فؤاد بن عبد الباقي بن صالح بن محمد","en":"M Fuʿād b. ʿAbdulbāqī b. Ṣāliḥ b. Muḥammad"}},"hadith_book":"lulu","hadith_no":2,"kitab":{"id":0,"th":"บทนำ","ar":"المقدمة","en":"Introduction"},"status":"translated","title":{"th":null,"ar":"null"},"last_updated":"2026-01-26T02:31:55.784Z"},{"hadith_id":"lulu:4","bab":{"th":"บทว่าด้วยการตักเตือนจากการโกหกต่อท่านรอซูลุลลอฮ์ ﷺ","ar":"باب فِي التَّحْذِيرِ مِنَ الْكَذِبِ عَلَى رَسُولِ اللَّهِ ﷺ ","en":"Warning about lying against the Messenger of Allah ﷺ"},"book_author":{"ar":"محمد فؤاد عبد الباقي"},"book_name":{"th":"อัล-ลุ'ลุ' วัล-มัรญาน","ar":"اللؤلؤ والمرجان","en":"Al-Lu'lu' wal-Marjan"},"chain":{"th":"อบูนุอัยม์ > สะอีด บิน อุบัยด์ > อะลี บิน รอบีอะฮ์ > อัลมุฆีเราะฮ์ ร่อฎิยัลลอฮุอันฮุ","ar":"حَدَّثَنَا أَبُو نُعَيْمٍ؛ حَدَّثَنَا سَعِيدُ بْنُ عُبَيْدٍ؛ عَنْ عَلِيِّ بْنِ رَبِيعَةَ؛ عَنِ الْمُغِيرَةِ ؓ قَالَ"},"content":{"th":"ฉันได้ยินท่านนบี ﷺ กล่าวว่า: \"แท้จริงการโกหกต่อฉันนั้นไม่เหมือนกับการโกหกต่อคนอื่นใด ผู้ใดจงใจโกหกต่อฉัน ก็จงเตรียมที่นั่งของเขาในไฟนรกเถิด\" ฉันได้ยินท่านนบี ﷺ กล่าวว่า: \"ผู้ใดถูกคร่ำครวญอาลัย (หลังจากตาย) เขาจะถูกลงโทษตามสิ่งที่ถูกคร่ำครวญอาลัย\"","ar":"سَمِعْتُ النَّبِيَّ ﷺ يَقُولُ: «إِنَّ كَذِبًا عَلَىَّ لَيْسَ كَكَذِبٍ عَلَى أَحَدٍ، مَنْ كَذَبَ عَلَىَّ مُتَعَمِّدًا فَلْيَتَبَوَّأْ مَقْعَدَهُ مِنَ النَّارِ۔»  سَمِعْتُ النَّبِيَّ ﷺ يَقُولُ: «مَنْ نِيحَ عَلَيْهِ يُعَذَّبُ بِمَا نِيحَ عَلَيْهِ۔»","en":"I heard the Prophet ﷺ saying, \"Ascribing false things to me is not like ascribing false things to anyone else. Whosoever tells a lie against me intentionally then surely let him occupy his seat in Hell-Fire.\"  I heard the Prophet ﷺ saying, \"The deceased who is wailed over is tortured for that wailing.\""},"footnote":{"th":null,"ar":"null"},"grade":{"th":null,"ar":"متفق عليه","en":"Agreed Upon"},"grade_grades":null,"grader":{"shortName":{"ar":"اللؤلؤ والمرجان","en":"Luʿluʿ wa-al-Marjān"},"fullName":{"ar":"محمد فؤاد بن عبد الباقي بن صالح بن محمد","en":"M Fuʿād b. ʿAbdulbāqī b. Ṣāliḥ b. Muḥammad"}},"hadith_book":"lulu","hadith_no":4,"kitab":{"id":0,"th":"บทนำ","ar":"المقدمة","en":"Introduction"},"status":"translated","title":{"th":null,"ar":"null"},"last_updated":"2026-01-26T02:32:13.749Z"}],"page":1,"limit":3,"total":1900,"total_pages":634}